[
    {
        "timestamp": "2020-07-28 15:25:00",
        "cod_variable": "CR2-06/QR1",
        "caudal": "2.2080"
    },
    {
        "timestamp": "2020-07-28 15:20:00",
        "cod_variable": "CR2-06/QR1",
        "caudal": "2.4590"
    },
    {
        "timestamp": "2020-07-28 15:15:00",
        "cod_variable": "CR2-06/QR1",
        "caudal": "2.6330"
    },
    {
        "timestamp": "2020-07-28 15:10:00",
        "cod_variable": "CR2-06/QR1",
        "caudal": "3.0400"
    },
    {
        "timestamp": "2020-07-28 15:05:00",
        "cod_variable": "CR2-06/QR1",
        "caudal": "3.3600"
    },
    {
        "timestamp": "2020-07-28 15:00:00",
        "cod_variable": "CR2-06/QR1",
        "caudal": "3.4390"
    },
    {
        "timestamp": "2020-07-28 14:55:00",
        "cod_variable": "CR2-06/QR1",
        "caudal": "3.9970"
    },
    {
        "timestamp": "2020-07-28 14:50:00",
        "cod_variable": "CR2-06/QR1",
        "caudal": "4.3850"
    },
    {
        "timestamp": "2020-07-28 14:45:00",
        "cod_variable": "CR2-06/QR1",
        "caudal": "4.6150"
    },
    {
        "timestamp": "2020-07-28 14:40:00",
        "cod_variable": "CR2-06/QR1",
        "caudal": "6.1030"
    },
    {
        "timestamp": "2020-07-28 14:35:00",
        "cod_variable": "CR2-06/QR1",
        "caudal": "7.8290"
    },
    {
        "timestamp": "2020-07-28 14:30:00",
        "cod_variable": "CR2-06/QR1",
        "caudal": "9.6400"
    },
    {
        "timestamp": "2020-07-28 14:25:00",
        "cod_variable": "CR2-06/QR1",
        "caudal": "11.8060"
    },
    {
        "timestamp": "2020-07-28 14:20:00",
        "cod_variable": "CR2-06/QR1",
        "caudal": "14.1100"
    },
    {
        "timestamp": "2020-07-28 14:15:00",
        "cod_variable": "CR2-06/QR1",
        "caudal": "15.5680"
    },
    {
        "timestamp": "2020-07-28 14:10:00",
        "cod_variable": "CR2-06/QR1",
        "caudal": "20.4050"
    },
    {
        "timestamp": "2020-07-28 14:05:00",
        "cod_variable": "CR2-06/QR1",
        "caudal": "26.2620"
    },
    {
        "timestamp": "2020-07-28 14:00:00",
        "cod_variable": "CR2-06/QR1",
        "caudal": "27.6270"
    },
    {
        "timestamp": "2020-07-28 13:30:00",
        "cod_variable": "CR2-06/QR1",
        "caudal": "27.6270"
    },
    {
        "timestamp": "2020-07-28 13:15:00",
        "cod_variable": "CR2-06/QR1",
        "caudal": "27.6270"
    },
    {
        "timestamp": "2020-07-28 13:00:00",
        "cod_variable": "CR2-06/QR1",
        "caudal": "27.6270"
    },
    {
        "timestamp": "2020-07-28 12:15:00",
        "cod_variable": "CR2-06/QR1",
        "caudal": "27.6270"
    },
    {
        "timestamp": "2020-07-28 11:30:00",
        "cod_variable": "CR2-06/QR1",
        "caudal": "27.6270"
    },
    {
        "timestamp": "2020-07-28 11:15:00",
        "cod_variable": "CR2-06/QR1",
        "caudal": "27.6270"
    },
    {
        "timestamp": "2020-07-28 11:10:00",
        "cod_variable": "CR2-06/QR1",
        "caudal": "27.4170"
    },
    {
        "timestamp": "2020-07-28 11:05:00",
        "cod_variable": "CR2-06/QR1",
        "caudal": "27.2180"
    },
    {
        "timestamp": "2020-07-28 11:00:00",
        "cod_variable": "CR2-06/QR1",
        "caudal": "27.1310"
    },
    {
        "timestamp": "2020-07-28 10:55:00",
        "cod_variable": "CR2-06/QR1",
        "caudal": "27.1060"
    },
    {
        "timestamp": "2020-07-28 10:50:00",
        "cod_variable": "CR2-06/QR1",
        "caudal": "27.1990"
    },
    {
        "timestamp": "2020-07-28 10:45:00",
        "cod_variable": "CR2-06/QR1",
        "caudal": "27.1040"
    },
    {
        "timestamp": "2020-07-28 10:40:00",
        "cod_variable": "CR2-06/QR1",
        "caudal": "26.8950"
    },
    {
        "timestamp": "2020-07-28 10:30:00",
        "cod_variable": "CR2-06/QR1",
        "caudal": "26.6070"
    },
    {
        "timestamp": "2020-07-28 10:25:00",
        "cod_variable": "CR2-06/QR1",
        "caudal": "26.2000"
    },
    {
        "timestamp": "2020-07-28 10:20:00",
        "cod_variable": "CR2-06/QR1",
        "caudal": "25.8000"
    },
    {
        "timestamp": "2020-07-28 10:15:00",
        "cod_variable": "CR2-06/QR1",
        "caudal": "25.6120"
    },
    {
        "timestamp": "2020-07-28 10:10:00",
        "cod_variable": "CR2-06/QR1",
        "caudal": "24.9140"
    },
    {
        "timestamp": "2020-07-28 10:05:00",
        "cod_variable": "CR2-06/QR1",
        "caudal": "24.5070"
    },
    {
        "timestamp": "2020-07-28 10:00:00",
        "cod_variable": "CR2-06/QR1",
        "caudal": "24.1160"
    },
    {
        "timestamp": "2020-07-28 09:55:00",
        "cod_variable": "CR2-06/QR1",
        "caudal": "22.9230"
    },
    {
        "timestamp": "2020-07-28 09:50:00",
        "cod_variable": "CR2-06/QR1",
        "caudal": "21.8340"
    },
    {
        "timestamp": "2020-07-28 09:45:00",
        "cod_variable": "CR2-06/QR1",
        "caudal": "20.8630"
    },
    {
        "timestamp": "2020-07-28 09:40:00",
        "cod_variable": "CR2-06/QR1",
        "caudal": "19.2650"
    },
    {
        "timestamp": "2020-07-28 09:35:00",
        "cod_variable": "CR2-06/QR1",
        "caudal": "17.7070"
    },
    {
        "timestamp": "2020-07-28 09:30:00",
        "cod_variable": "CR2-06/QR1",
        "caudal": "16.7040"
    },
    {
        "timestamp": "2020-07-28 09:25:00",
        "cod_variable": "CR2-06/QR1",
        "caudal": "15.3610"
    },
    {
        "timestamp": "2020-07-28 09:20:00",
        "cod_variable": "CR2-06/QR1",
        "caudal": "12.6870"
    },
    {
        "timestamp": "2020-07-28 09:15:00",
        "cod_variable": "CR2-06/QR1",
        "caudal": "9.9360"
    },
    {
        "timestamp": "2020-07-28 09:10:00",
        "cod_variable": "CR2-06/QR1",
        "caudal": "3.9040"
    },
    {
        "timestamp": "2020-07-28 09:00:00",
        "cod_variable": "CR2-06/QR1",
        "caudal": "0.0710"
    },
    {
        "timestamp": "2020-07-28 08:45:00",
        "cod_variable": "CR2-06/QR1",
        "caudal": "0.0710"
    },
    {
        "timestamp": "2020-07-28 08:30:00",
        "cod_variable": "CR2-06/QR1",
        "caudal": "0.0710"
    },
    {
        "timestamp": "2020-07-28 08:15:00",
        "cod_variable": "CR2-06/QR1",
        "caudal": "0.0710"
    },
    {
        "timestamp": "2020-07-28 08:00:00",
        "cod_variable": "CR2-06/QR1",
        "caudal": "0.0710"
    },
    {
        "timestamp": "2020-07-28 07:45:00",
        "cod_variable": "CR2-06/QR1",
        "caudal": "0.0710"
    },
    {
        "timestamp": "2020-07-28 07:15:00",
        "cod_variable": "CR2-06/QR1",
        "caudal": "0.0650"
    },
    {
        "timestamp": "2020-07-28 06:45:00",
        "cod_variable": "CR2-06/QR1",
        "caudal": "0.0710"
    },
    {
        "timestamp": "2020-07-28 06:30:00",
        "cod_variable": "CR2-06/QR1",
        "caudal": "0.0710"
    },
    {
        "timestamp": "2020-07-28 06:15:00",
        "cod_variable": "CR2-06/QR1",
        "caudal": "0.0710"
    },
    {
        "timestamp": "2020-07-28 06:00:00",
        "cod_variable": "CR2-06/QR1",
        "caudal": "0.0710"
    },
    {
        "timestamp": "2020-07-28 05:45:00",
        "cod_variable": "CR2-06/QR1",
        "caudal": "0.0710"
    },
    {
        "timestamp": "2020-07-28 05:30:00",
        "cod_variable": "CR2-06/QR1",
        "caudal": "0.0710"
    },
    {
        "timestamp": "2020-07-28 05:15:00",
        "cod_variable": "CR2-06/QR1",
        "caudal": "0.0710"
    },
    {
        "timestamp": "2020-07-28 05:00:00",
        "cod_variable": "CR2-06/QR1",
        "caudal": "0.0710"
    },
    {
        "timestamp": "2020-07-28 04:45:00",
        "cod_variable": "CR2-06/QR1",
        "caudal": "0.0710"
    },
    {
        "timestamp": "2020-07-28 04:30:00",
        "cod_variable": "CR2-06/QR1",
        "caudal": "0.0710"
    },
    {
        "timestamp": "2020-07-28 04:15:00",
        "cod_variable": "CR2-06/QR1",
        "caudal": "0.0710"
    },
    {
        "timestamp": "2020-07-28 04:00:00",
        "cod_variable": "CR2-06/QR1",
        "caudal": "0.0710"
    },
    {
        "timestamp": "2020-07-28 03:45:00",
        "cod_variable": "CR2-06/QR1",
        "caudal": "0.0710"
    },
    {
        "timestamp": "2020-07-28 03:30:00",
        "cod_variable": "CR2-06/QR1",
        "caudal": "0.0710"
    },
    {
        "timestamp": "2020-07-28 03:15:00",
        "cod_variable": "CR2-06/QR1",
        "caudal": "0.0710"
    },
    {
        "timestamp": "2020-07-28 03:00:00",
        "cod_variable": "CR2-06/QR1",
        "caudal": "0.0710"
    },
    {
        "timestamp": "2020-07-28 02:40:00",
        "cod_variable": "CR2-06/QR1",
        "caudal": "0.0710"
    },
    {
        "timestamp": "2020-07-28 02:25:00",
        "cod_variable": "CR2-06/QR1",
        "caudal": "0.0710"
    },
    {
        "timestamp": "2020-07-28 02:10:00",
        "cod_variable": "CR2-06/QR1",
        "caudal": "0.0710"
    },
    {
        "timestamp": "2020-07-28 01:55:00",
        "cod_variable": "CR2-06/QR1",
        "caudal": "0.0710"
    },
    {
        "timestamp": "2020-07-28 01:40:00",
        "cod_variable": "CR2-06/QR1",
        "caudal": "0.0710"
    },
    {
        "timestamp": "2020-07-28 01:25:00",
        "cod_variable": "CR2-06/QR1",
        "caudal": "0.0710"
    },
    {
        "timestamp": "2020-07-28 01:10:00",
        "cod_variable": "CR2-06/QR1",
        "caudal": "0.0710"
    },
    {
        "timestamp": "2020-07-28 00:40:00",
        "cod_variable": "CR2-06/QR1",
        "caudal": "0.0710"
    },
    {
        "timestamp": "2020-07-28 00:10:00",
        "cod_variable": "CR2-06/QR1",
        "caudal": "0.0710"
    },
    {
        "timestamp": "2020-07-27 23:55:00",
        "cod_variable": "CR2-06/QR1",
        "caudal": "0.0710"
    },
    {
        "timestamp": "2020-07-27 23:40:00",
        "cod_variable": "CR2-06/QR1",
        "caudal": "0.0710"
    },
    {
        "timestamp": "2020-07-27 23:10:00",
        "cod_variable": "CR2-06/QR1",
        "caudal": "0.0710"
    },
    {
        "timestamp": "2020-07-27 22:55:00",
        "cod_variable": "CR2-06/QR1",
        "caudal": "0.0710"
    },
    {
        "timestamp": "2020-07-27 22:40:00",
        "cod_variable": "CR2-06/QR1",
        "caudal": "0.0710"
    },
    {
        "timestamp": "2020-07-27 22:25:00",
        "cod_variable": "CR2-06/QR1",
        "caudal": "0.0710"
    },
    {
        "timestamp": "2020-07-27 22:10:00",
        "cod_variable": "CR2-06/QR1",
        "caudal": "0.0710"
    },
    {
        "timestamp": "2020-07-27 21:25:00",
        "cod_variable": "CR2-06/QR1",
        "caudal": "0.0780"
    },
    {
        "timestamp": "2020-07-27 21:10:00",
        "cod_variable": "CR2-06/QR1",
        "caudal": "0.0780"
    },
    {
        "timestamp": "2020-07-27 20:25:00",
        "cod_variable": "CR2-06/QR1",
        "caudal": "0.0780"
    },
    {
        "timestamp": "2020-07-27 20:10:00",
        "cod_variable": "CR2-06/QR1",
        "caudal": "0.0780"
    },
    {
        "timestamp": "2020-07-27 19:55:00",
        "cod_variable": "CR2-06/QR1",
        "caudal": "0.0780"
    },
    {
        "timestamp": "2020-07-27 19:25:00",
        "cod_variable": "CR2-06/QR1",
        "caudal": "0.0780"
    },
    {
        "timestamp": "2020-07-27 19:10:00",
        "cod_variable": "CR2-06/QR1",
        "caudal": "0.0840"
    },
    {
        "timestamp": "2020-07-27 18:55:00",
        "cod_variable": "CR2-06/QR1",
        "caudal": "0.0840"
    },
    {
        "timestamp": "2020-07-27 18:40:00",
        "cod_variable": "CR2-06/QR1",
        "caudal": "0.0840"
    },
    {
        "timestamp": "2020-07-27 18:25:00",
        "cod_variable": "CR2-06/QR1",
        "caudal": "0.0840"
    },
    {
        "timestamp": "2020-07-27 18:10:00",
        "cod_variable": "CR2-06/QR1",
        "caudal": "0.0840"
    },
    {
        "timestamp": "2020-07-27 17:55:00",
        "cod_variable": "CR2-06/QR1",
        "caudal": "0.0840"
    },
    {
        "timestamp": "2020-07-27 17:40:00",
        "cod_variable": "CR2-06/QR1",
        "caudal": "0.0910"
    },
    {
        "timestamp": "2020-07-27 17:25:00",
        "cod_variable": "CR2-06/QR1",
        "caudal": "0.0910"
    },
    {
        "timestamp": "2020-07-27 17:10:00",
        "cod_variable": "CR2-06/QR1",
        "caudal": "0.0980"
    },
    {
        "timestamp": "2020-07-27 16:45:00",
        "cod_variable": "CR2-06/QR1",
        "caudal": "0.0980"
    },
    {
        "timestamp": "2020-07-27 16:40:00",
        "cod_variable": "CR2-06/QR1",
        "caudal": "0.4110"
    },
    {
        "timestamp": "2020-07-27 16:25:00",
        "cod_variable": "CR2-06/QR1",
        "caudal": "0.4110"
    },
    {
        "timestamp": "2020-07-27 16:20:00",
        "cod_variable": "CR2-06/QR1",
        "caudal": "0.4110"
    },
    {
        "timestamp": "2020-07-27 16:15:00",
        "cod_variable": "CR2-06/QR1",
        "caudal": "0.7050"
    },
    {
        "timestamp": "2020-07-27 16:10:00",
        "cod_variable": "CR2-06/QR1",
        "caudal": "0.8990"
    },
    {
        "timestamp": "2020-07-28 11:25:00",
        "cod_variable": "CR2-13/QR1",
        "caudal": "26.7420"
    },
    {
        "timestamp": "2020-07-28 11:20:00",
        "cod_variable": "CR2-13/QR1",
        "caudal": "26.7420"
    },
    {
        "timestamp": "2020-07-28 11:15:00",
        "cod_variable": "CR2-13/QR1",
        "caudal": "26.7420"
    },
    {
        "timestamp": "2020-07-28 11:10:00",
        "cod_variable": "CR2-13/QR1",
        "caudal": "26.7420"
    },
    {
        "timestamp": "2020-07-28 11:05:00",
        "cod_variable": "CR2-13/QR1",
        "caudal": "26.7420"
    },
    {
        "timestamp": "2020-07-28 10:55:00",
        "cod_variable": "CR2-13/QR1",
        "caudal": "26.7420"
    },
    {
        "timestamp": "2020-07-28 10:50:00",
        "cod_variable": "CR2-13/QR1",
        "caudal": "26.7420"
    },
    {
        "timestamp": "2020-07-28 10:45:00",
        "cod_variable": "CR2-13/QR1",
        "caudal": "26.7420"
    },
    {
        "timestamp": "2020-07-28 10:40:00",
        "cod_variable": "CR2-13/QR1",
        "caudal": "26.7420"
    },
    {
        "timestamp": "2020-07-28 10:35:00",
        "cod_variable": "CR2-13/QR1",
        "caudal": "26.7420"
    },
    {
        "timestamp": "2020-07-28 10:30:00",
        "cod_variable": "CR2-13/QR1",
        "caudal": "26.0980"
    },
    {
        "timestamp": "2020-07-28 10:25:00",
        "cod_variable": "CR2-13/QR1",
        "caudal": "26.0980"
    },
    {
        "timestamp": "2020-07-28 10:20:00",
        "cod_variable": "CR2-13/QR1",
        "caudal": "26.0980"
    },
    {
        "timestamp": "2020-07-28 10:15:00",
        "cod_variable": "CR2-13/QR1",
        "caudal": "26.0980"
    },
    {
        "timestamp": "2020-07-28 10:10:00",
        "cod_variable": "CR2-13/QR1",
        "caudal": "26.0980"
    },
    {
        "timestamp": "2020-07-28 10:00:00",
        "cod_variable": "CR2-13/QR1",
        "caudal": "25.4540"
    },
    {
        "timestamp": "2020-07-28 09:55:00",
        "cod_variable": "CR2-13/QR1",
        "caudal": "25.4540"
    },
    {
        "timestamp": "2020-07-28 09:50:00",
        "cod_variable": "CR2-13/QR1",
        "caudal": "25.4540"
    },
    {
        "timestamp": "2020-07-28 09:45:00",
        "cod_variable": "CR2-13/QR1",
        "caudal": "25.4540"
    },
    {
        "timestamp": "2020-07-28 09:40:00",
        "cod_variable": "CR2-13/QR1",
        "caudal": "24.8100"
    },
    {
        "timestamp": "2020-07-28 09:35:00",
        "cod_variable": "CR2-13/QR1",
        "caudal": "24.8100"
    },
    {
        "timestamp": "2020-07-28 09:30:00",
        "cod_variable": "CR2-13/QR1",
        "caudal": "24.8100"
    },
    {
        "timestamp": "2020-07-28 09:25:00",
        "cod_variable": "CR2-13/QR1",
        "caudal": "24.1660"
    },
    {
        "timestamp": "2020-07-28 09:20:00",
        "cod_variable": "CR2-13/QR1",
        "caudal": "24.1660"
    },
    {
        "timestamp": "2020-07-28 09:15:00",
        "cod_variable": "CR2-13/QR1",
        "caudal": "23.5220"
    },
    {
        "timestamp": "2020-07-28 09:05:00",
        "cod_variable": "CR2-13/QR1",
        "caudal": "22.8780"
    },
    {
        "timestamp": "2020-07-28 09:00:00",
        "cod_variable": "CR2-13/QR1",
        "caudal": "22.8780"
    },
    {
        "timestamp": "2020-07-28 08:55:00",
        "cod_variable": "CR2-13/QR1",
        "caudal": "22.2340"
    },
    {
        "timestamp": "2020-07-28 08:50:00",
        "cod_variable": "CR2-13/QR1",
        "caudal": "21.5900"
    },
    {
        "timestamp": "2020-07-28 08:45:00",
        "cod_variable": "CR2-13/QR1",
        "caudal": "21.1400"
    },
    {
        "timestamp": "2020-07-28 08:40:00",
        "cod_variable": "CR2-13/QR1",
        "caudal": "20.9460"
    },
    {
        "timestamp": "2020-07-28 08:35:00",
        "cod_variable": "CR2-13/QR1",
        "caudal": "20.2810"
    },
    {
        "timestamp": "2020-07-28 08:30:00",
        "cod_variable": "CR2-13/QR1",
        "caudal": "19.6590"
    },
    {
        "timestamp": "2020-07-28 08:20:00",
        "cod_variable": "CR2-13/QR1",
        "caudal": "18.0460"
    },
    {
        "timestamp": "2020-07-28 08:15:00",
        "cod_variable": "CR2-13/QR1",
        "caudal": "17.0830"
    },
    {
        "timestamp": "2020-07-28 08:10:00",
        "cod_variable": "CR2-13/QR1",
        "caudal": "16.4390"
    },
    {
        "timestamp": "2020-07-28 08:05:00",
        "cod_variable": "CR2-13/QR1",
        "caudal": "15.7950"
    },
    {
        "timestamp": "2020-07-28 08:00:00",
        "cod_variable": "CR2-13/QR1",
        "caudal": "14.4850"
    },
    {
        "timestamp": "2020-07-28 07:55:00",
        "cod_variable": "CR2-13/QR1",
        "caudal": "13.2190"
    },
    {
        "timestamp": "2020-07-28 07:50:00",
        "cod_variable": "CR2-13/QR1",
        "caudal": "12.1240"
    },
    {
        "timestamp": "2020-07-28 07:45:00",
        "cod_variable": "CR2-13/QR1",
        "caudal": "10.9330"
    },
    {
        "timestamp": "2020-07-28 07:40:00",
        "cod_variable": "CR2-13/QR1",
        "caudal": "9.7330"
    },
    {
        "timestamp": "2020-07-28 07:35:00",
        "cod_variable": "CR2-13/QR1",
        "caudal": "9.3610"
    },
    {
        "timestamp": "2020-07-28 07:25:00",
        "cod_variable": "CR2-13/QR1",
        "caudal": "8.1160"
    },
    {
        "timestamp": "2020-07-28 07:20:00",
        "cod_variable": "CR2-13/QR1",
        "caudal": "7.4880"
    },
    {
        "timestamp": "2020-07-28 07:15:00",
        "cod_variable": "CR2-13/QR1",
        "caudal": "6.7200"
    },
    {
        "timestamp": "2020-07-28 07:10:00",
        "cod_variable": "CR2-13/QR1",
        "caudal": "6.2110"
    },
    {
        "timestamp": "2020-07-28 07:05:00",
        "cod_variable": "CR2-13/QR1",
        "caudal": "5.1780"
    },
    {
        "timestamp": "2020-07-28 07:00:00",
        "cod_variable": "CR2-13/QR1",
        "caudal": "4.5560"
    },
    {
        "timestamp": "2020-07-28 06:55:00",
        "cod_variable": "CR2-13/QR1",
        "caudal": "3.4970"
    },
    {
        "timestamp": "2020-07-28 06:50:00",
        "cod_variable": "CR2-13/QR1",
        "caudal": "2.6740"
    },
    {
        "timestamp": "2020-07-28 06:40:00",
        "cod_variable": "CR2-13/QR1",
        "caudal": "1.1030"
    },
    {
        "timestamp": "2020-07-28 06:35:00",
        "cod_variable": "CR2-13/QR1",
        "caudal": "0.8330"
    },
    {
        "timestamp": "2020-07-28 06:30:00",
        "cod_variable": "CR2-13/QR1",
        "caudal": "0.5370"
    },
    {
        "timestamp": "2020-07-28 06:25:00",
        "cod_variable": "CR2-13/QR1",
        "caudal": "0.4370"
    },
    {
        "timestamp": "2020-07-28 06:20:00",
        "cod_variable": "CR2-13/QR1",
        "caudal": "0.4060"
    },
    {
        "timestamp": "2020-07-28 06:15:00",
        "cod_variable": "CR2-13/QR1",
        "caudal": "0.4060"
    },
    {
        "timestamp": "2020-07-28 06:10:00",
        "cod_variable": "CR2-13/QR1",
        "caudal": "0.4060"
    },
    {
        "timestamp": "2020-07-28 06:05:00",
        "cod_variable": "CR2-13/QR1",
        "caudal": "0.4060"
    },
    {
        "timestamp": "2020-07-28 06:00:00",
        "cod_variable": "CR2-13/QR1",
        "caudal": "0.4060"
    },
    {
        "timestamp": "2020-07-28 05:55:00",
        "cod_variable": "CR2-13/QR1",
        "caudal": "0.4060"
    },
    {
        "timestamp": "2020-07-28 05:45:00",
        "cod_variable": "CR2-13/QR1",
        "caudal": "0.4060"
    },
    {
        "timestamp": "2020-07-28 05:40:00",
        "cod_variable": "CR2-13/QR1",
        "caudal": "0.4060"
    },
    {
        "timestamp": "2020-07-28 05:35:00",
        "cod_variable": "CR2-13/QR1",
        "caudal": "0.4060"
    },
    {
        "timestamp": "2020-07-28 05:30:00",
        "cod_variable": "CR2-13/QR1",
        "caudal": "0.4060"
    },
    {
        "timestamp": "2020-07-28 05:25:00",
        "cod_variable": "CR2-13/QR1",
        "caudal": "0.4060"
    },
    {
        "timestamp": "2020-07-28 05:20:00",
        "cod_variable": "CR2-13/QR1",
        "caudal": "0.4060"
    },
    {
        "timestamp": "2020-07-28 05:15:00",
        "cod_variable": "CR2-13/QR1",
        "caudal": "0.4060"
    },
    {
        "timestamp": "2020-07-28 05:10:00",
        "cod_variable": "CR2-13/QR1",
        "caudal": "0.4060"
    },
    {
        "timestamp": "2020-07-28 05:05:00",
        "cod_variable": "CR2-13/QR1",
        "caudal": "0.4060"
    },
    {
        "timestamp": "2020-07-28 05:00:00",
        "cod_variable": "CR2-13/QR1",
        "caudal": "0.4060"
    },
    {
        "timestamp": "2020-07-28 04:50:00",
        "cod_variable": "CR2-13/QR1",
        "caudal": "0.4060"
    },
    {
        "timestamp": "2020-07-28 04:45:00",
        "cod_variable": "CR2-13/QR1",
        "caudal": "0.4060"
    },
    {
        "timestamp": "2020-07-28 04:40:00",
        "cod_variable": "CR2-13/QR1",
        "caudal": "0.4060"
    },
    {
        "timestamp": "2020-07-28 04:35:00",
        "cod_variable": "CR2-13/QR1",
        "caudal": "0.4060"
    },
    {
        "timestamp": "2020-07-28 04:30:00",
        "cod_variable": "CR2-13/QR1",
        "caudal": "0.4060"
    },
    {
        "timestamp": "2020-07-28 04:25:00",
        "cod_variable": "CR2-13/QR1",
        "caudal": "0.4060"
    },
    {
        "timestamp": "2020-07-28 04:20:00",
        "cod_variable": "CR2-13/QR1",
        "caudal": "0.4060"
    },
    {
        "timestamp": "2020-07-28 04:15:00",
        "cod_variable": "CR2-13/QR1",
        "caudal": "0.4060"
    },
    {
        "timestamp": "2020-07-28 04:05:00",
        "cod_variable": "CR2-13/QR1",
        "caudal": "0.4060"
    },
    {
        "timestamp": "2020-07-28 04:00:00",
        "cod_variable": "CR2-13/QR1",
        "caudal": "0.4060"
    },
    {
        "timestamp": "2020-07-28 03:55:00",
        "cod_variable": "CR2-13/QR1",
        "caudal": "0.4060"
    },
    {
        "timestamp": "2020-07-28 03:50:00",
        "cod_variable": "CR2-13/QR1",
        "caudal": "0.4060"
    },
    {
        "timestamp": "2020-07-28 03:45:00",
        "cod_variable": "CR2-13/QR1",
        "caudal": "0.4060"
    },
    {
        "timestamp": "2020-07-28 03:40:00",
        "cod_variable": "CR2-13/QR1",
        "caudal": "0.4060"
    },
    {
        "timestamp": "2020-07-28 03:35:00",
        "cod_variable": "CR2-13/QR1",
        "caudal": "0.4060"
    },
    {
        "timestamp": "2020-07-28 03:30:00",
        "cod_variable": "CR2-13/QR1",
        "caudal": "0.4060"
    },
    {
        "timestamp": "2020-07-28 03:25:00",
        "cod_variable": "CR2-13/QR1",
        "caudal": "0.4060"
    },
    {
        "timestamp": "2020-07-28 03:20:00",
        "cod_variable": "CR2-13/QR1",
        "caudal": "0.4060"
    },
    {
        "timestamp": "2020-07-28 03:10:00",
        "cod_variable": "CR2-13/QR1",
        "caudal": "0.4060"
    },
    {
        "timestamp": "2020-07-28 03:05:00",
        "cod_variable": "CR2-13/QR1",
        "caudal": "0.4060"
    },
    {
        "timestamp": "2020-07-28 03:00:00",
        "cod_variable": "CR2-13/QR1",
        "caudal": "0.4060"
    },
    {
        "timestamp": "2020-07-28 02:55:00",
        "cod_variable": "CR2-13/QR1",
        "caudal": "0.4060"
    },
    {
        "timestamp": "2020-07-28 02:50:00",
        "cod_variable": "CR2-13/QR1",
        "caudal": "0.4060"
    },
    {
        "timestamp": "2020-07-28 02:45:00",
        "cod_variable": "CR2-13/QR1",
        "caudal": "0.4060"
    },
    {
        "timestamp": "2020-07-28 02:40:00",
        "cod_variable": "CR2-13/QR1",
        "caudal": "0.4060"
    },
    {
        "timestamp": "2020-07-28 02:35:00",
        "cod_variable": "CR2-13/QR1",
        "caudal": "0.4060"
    },
    {
        "timestamp": "2020-07-28 02:25:00",
        "cod_variable": "CR2-13/QR1",
        "caudal": "0.4060"
    },
    {
        "timestamp": "2020-07-28 02:20:00",
        "cod_variable": "CR2-13/QR1",
        "caudal": "0.4060"
    },
    {
        "timestamp": "2020-07-28 02:15:00",
        "cod_variable": "CR2-13/QR1",
        "caudal": "0.4060"
    },
    {
        "timestamp": "2020-07-28 02:10:00",
        "cod_variable": "CR2-13/QR1",
        "caudal": "0.4060"
    },
    {
        "timestamp": "2020-07-28 02:05:00",
        "cod_variable": "CR2-13/QR1",
        "caudal": "0.4060"
    },
    {
        "timestamp": "2020-07-28 02:00:00",
        "cod_variable": "CR2-13/QR1",
        "caudal": "0.4060"
    },
    {
        "timestamp": "2020-07-28 01:55:00",
        "cod_variable": "CR2-13/QR1",
        "caudal": "0.4060"
    },
    {
        "timestamp": "2020-07-28 01:50:00",
        "cod_variable": "CR2-13/QR1",
        "caudal": "0.4060"
    },
    {
        "timestamp": "2020-07-28 01:45:00",
        "cod_variable": "CR2-13/QR1",
        "caudal": "0.4060"
    },
    {
        "timestamp": "2020-07-28 01:40:00",
        "cod_variable": "CR2-13/QR1",
        "caudal": "0.4060"
    },
    {
        "timestamp": "2020-07-28 01:30:00",
        "cod_variable": "CR2-13/QR1",
        "caudal": "0.4060"
    },
    {
        "timestamp": "2020-07-28 01:25:00",
        "cod_variable": "CR2-13/QR1",
        "caudal": "0.4060"
    },
    {
        "timestamp": "2020-07-28 01:20:00",
        "cod_variable": "CR2-13/QR1",
        "caudal": "0.4060"
    },
    {
        "timestamp": "2020-07-28 01:15:00",
        "cod_variable": "CR2-13/QR1",
        "caudal": "0.4060"
    },
    {
        "timestamp": "2020-07-28 01:10:00",
        "cod_variable": "CR2-13/QR1",
        "caudal": "0.4060"
    },
    {
        "timestamp": "2020-07-28 01:05:00",
        "cod_variable": "CR2-13/QR1",
        "caudal": "0.4060"
    },
    {
        "timestamp": "2020-07-28 01:00:00",
        "cod_variable": "CR2-13/QR1",
        "caudal": "0.4060"
    },
    {
        "timestamp": "2020-07-28 00:55:00",
        "cod_variable": "CR2-13/QR1",
        "caudal": "0.4060"
    },
    {
        "timestamp": "2020-07-28 00:50:00",
        "cod_variable": "CR2-13/QR1",
        "caudal": "0.4060"
    },
    {
        "timestamp": "2020-07-28 00:45:00",
        "cod_variable": "CR2-13/QR1",
        "caudal": "0.4230"
    },
    {
        "timestamp": "2020-07-28 00:35:00",
        "cod_variable": "CR2-13/QR1",
        "caudal": "0.4370"
    },
    {
        "timestamp": "2020-07-28 00:30:00",
        "cod_variable": "CR2-13/QR1",
        "caudal": "0.4370"
    },
    {
        "timestamp": "2020-07-28 00:25:00",
        "cod_variable": "CR2-13/QR1",
        "caudal": "0.4370"
    },
    {
        "timestamp": "2020-07-28 00:20:00",
        "cod_variable": "CR2-13/QR1",
        "caudal": "0.4370"
    },
    {
        "timestamp": "2020-07-28 00:15:00",
        "cod_variable": "CR2-13/QR1",
        "caudal": "0.4370"
    },
    {
        "timestamp": "2020-07-28 00:10:00",
        "cod_variable": "CR2-13/QR1",
        "caudal": "0.4370"
    },
    {
        "timestamp": "2020-07-28 00:05:00",
        "cod_variable": "CR2-13/QR1",
        "caudal": "0.4370"
    },
    {
        "timestamp": "2020-07-28 00:00:00",
        "cod_variable": "CR2-13/QR1",
        "caudal": "0.4370"
    },
    {
        "timestamp": "2020-07-27 23:50:00",
        "cod_variable": "CR2-13/QR1",
        "caudal": "0.4370"
    },
    {
        "timestamp": "2020-07-27 23:45:00",
        "cod_variable": "CR2-13/QR1",
        "caudal": "0.4370"
    },
    {
        "timestamp": "2020-07-27 23:40:00",
        "cod_variable": "CR2-13/QR1",
        "caudal": "0.4370"
    },
    {
        "timestamp": "2020-07-27 23:35:00",
        "cod_variable": "CR2-13/QR1",
        "caudal": "0.4370"
    },
    {
        "timestamp": "2020-07-27 23:30:00",
        "cod_variable": "CR2-13/QR1",
        "caudal": "0.4370"
    },
    {
        "timestamp": "2020-07-27 23:25:00",
        "cod_variable": "CR2-13/QR1",
        "caudal": "0.4370"
    },
    {
        "timestamp": "2020-07-27 23:20:00",
        "cod_variable": "CR2-13/QR1",
        "caudal": "0.4370"
    },
    {
        "timestamp": "2020-07-27 23:15:00",
        "cod_variable": "CR2-13/QR1",
        "caudal": "0.4370"
    },
    {
        "timestamp": "2020-07-27 23:10:00",
        "cod_variable": "CR2-13/QR1",
        "caudal": "0.4370"
    },
    {
        "timestamp": "2020-07-27 23:05:00",
        "cod_variable": "CR2-13/QR1",
        "caudal": "0.4370"
    },
    {
        "timestamp": "2020-07-27 22:55:00",
        "cod_variable": "CR2-13/QR1",
        "caudal": "0.4370"
    },
    {
        "timestamp": "2020-07-27 22:50:00",
        "cod_variable": "CR2-13/QR1",
        "caudal": "0.4370"
    },
    {
        "timestamp": "2020-07-27 22:45:00",
        "cod_variable": "CR2-13/QR1",
        "caudal": "0.4370"
    },
    {
        "timestamp": "2020-07-27 22:40:00",
        "cod_variable": "CR2-13/QR1",
        "caudal": "0.4370"
    },
    {
        "timestamp": "2020-07-27 22:35:00",
        "cod_variable": "CR2-13/QR1",
        "caudal": "0.4370"
    },
    {
        "timestamp": "2020-07-27 22:30:00",
        "cod_variable": "CR2-13/QR1",
        "caudal": "0.4370"
    },
    {
        "timestamp": "2020-07-27 22:25:00",
        "cod_variable": "CR2-13/QR1",
        "caudal": "0.4370"
    },
    {
        "timestamp": "2020-07-27 22:20:00",
        "cod_variable": "CR2-13/QR1",
        "caudal": "0.4370"
    },
    {
        "timestamp": "2020-07-27 22:10:00",
        "cod_variable": "CR2-13/QR1",
        "caudal": "0.4370"
    },
    {
        "timestamp": "2020-07-27 22:05:00",
        "cod_variable": "CR2-13/QR1",
        "caudal": "0.4370"
    },
    {
        "timestamp": "2020-07-27 22:00:00",
        "cod_variable": "CR2-13/QR1",
        "caudal": "0.4530"
    },
    {
        "timestamp": "2020-07-27 21:55:00",
        "cod_variable": "CR2-13/QR1",
        "caudal": "0.4680"
    },
    {
        "timestamp": "2020-07-27 21:50:00",
        "cod_variable": "CR2-13/QR1",
        "caudal": "0.4680"
    },
    {
        "timestamp": "2020-07-27 21:45:00",
        "cod_variable": "CR2-13/QR1",
        "caudal": "0.4680"
    },
    {
        "timestamp": "2020-07-27 21:40:00",
        "cod_variable": "CR2-13/QR1",
        "caudal": "0.4680"
    },
    {
        "timestamp": "2020-07-27 21:35:00",
        "cod_variable": "CR2-13/QR1",
        "caudal": "0.4680"
    },
    {
        "timestamp": "2020-07-27 21:30:00",
        "cod_variable": "CR2-13/QR1",
        "caudal": "0.4680"
    },
    {
        "timestamp": "2020-07-27 21:25:00",
        "cod_variable": "CR2-13/QR1",
        "caudal": "0.4680"
    },
    {
        "timestamp": "2020-07-27 21:15:00",
        "cod_variable": "CR2-13/QR1",
        "caudal": "0.4680"
    },
    {
        "timestamp": "2020-07-27 21:10:00",
        "cod_variable": "CR2-13/QR1",
        "caudal": "0.4680"
    },
    {
        "timestamp": "2020-07-27 21:05:00",
        "cod_variable": "CR2-13/QR1",
        "caudal": "0.4680"
    },
    {
        "timestamp": "2020-07-27 21:00:00",
        "cod_variable": "CR2-13/QR1",
        "caudal": "0.4680"
    },
    {
        "timestamp": "2020-07-27 20:55:00",
        "cod_variable": "CR2-13/QR1",
        "caudal": "0.4680"
    },
    {
        "timestamp": "2020-07-27 20:50:00",
        "cod_variable": "CR2-13/QR1",
        "caudal": "0.4680"
    },
    {
        "timestamp": "2020-07-27 20:45:00",
        "cod_variable": "CR2-13/QR1",
        "caudal": "0.4680"
    },
    {
        "timestamp": "2020-07-27 20:40:00",
        "cod_variable": "CR2-13/QR1",
        "caudal": "0.5000"
    },
    {
        "timestamp": "2020-07-27 20:35:00",
        "cod_variable": "CR2-13/QR1",
        "caudal": "0.5000"
    },
    {
        "timestamp": "2020-07-27 20:30:00",
        "cod_variable": "CR2-13/QR1",
        "caudal": "0.5000"
    },
    {
        "timestamp": "2020-07-27 20:20:00",
        "cod_variable": "CR2-13/QR1",
        "caudal": "0.5000"
    },
    {
        "timestamp": "2020-07-27 20:15:00",
        "cod_variable": "CR2-13/QR1",
        "caudal": "0.5000"
    },
    {
        "timestamp": "2020-07-27 20:10:00",
        "cod_variable": "CR2-13/QR1",
        "caudal": "0.5000"
    },
    {
        "timestamp": "2020-07-27 20:05:00",
        "cod_variable": "CR2-13/QR1",
        "caudal": "0.5000"
    },
    {
        "timestamp": "2020-07-27 20:00:00",
        "cod_variable": "CR2-13/QR1",
        "caudal": "0.5000"
    },
    {
        "timestamp": "2020-07-27 19:55:00",
        "cod_variable": "CR2-13/QR1",
        "caudal": "0.5000"
    },
    {
        "timestamp": "2020-07-27 19:50:00",
        "cod_variable": "CR2-13/QR1",
        "caudal": "0.5000"
    },
    {
        "timestamp": "2020-07-27 19:45:00",
        "cod_variable": "CR2-13/QR1",
        "caudal": "0.5000"
    },
    {
        "timestamp": "2020-07-27 19:35:00",
        "cod_variable": "CR2-13/QR1",
        "caudal": "0.5000"
    },
    {
        "timestamp": "2020-07-27 19:30:00",
        "cod_variable": "CR2-13/QR1",
        "caudal": "0.5000"
    },
    {
        "timestamp": "2020-07-27 19:25:00",
        "cod_variable": "CR2-13/QR1",
        "caudal": "0.5000"
    },
    {
        "timestamp": "2020-07-27 19:20:00",
        "cod_variable": "CR2-13/QR1",
        "caudal": "0.5000"
    },
    {
        "timestamp": "2020-07-27 19:15:00",
        "cod_variable": "CR2-13/QR1",
        "caudal": "0.5000"
    },
    {
        "timestamp": "2020-07-27 19:10:00",
        "cod_variable": "CR2-13/QR1",
        "caudal": "0.5080"
    },
    {
        "timestamp": "2020-07-27 19:05:00",
        "cod_variable": "CR2-13/QR1",
        "caudal": "0.5830"
    },
    {
        "timestamp": "2020-07-27 19:00:00",
        "cod_variable": "CR2-13/QR1",
        "caudal": "0.5830"
    },
    {
        "timestamp": "2020-07-27 18:50:00",
        "cod_variable": "CR2-13/QR1",
        "caudal": "0.5830"
    },
    {
        "timestamp": "2020-07-27 18:40:00",
        "cod_variable": "CR2-13/QR1",
        "caudal": "0.5830"
    },
    {
        "timestamp": "2020-07-27 18:35:00",
        "cod_variable": "CR2-13/QR1",
        "caudal": "0.5830"
    },
    {
        "timestamp": "2020-07-27 18:30:00",
        "cod_variable": "CR2-13/QR1",
        "caudal": "0.5830"
    },
    {
        "timestamp": "2020-07-27 18:25:00",
        "cod_variable": "CR2-13/QR1",
        "caudal": "0.5830"
    },
    {
        "timestamp": "2020-07-27 18:20:00",
        "cod_variable": "CR2-13/QR1",
        "caudal": "0.5830"
    },
    {
        "timestamp": "2020-07-27 18:15:00",
        "cod_variable": "CR2-13/QR1",
        "caudal": "0.6660"
    },
    {
        "timestamp": "2020-07-27 18:10:00",
        "cod_variable": "CR2-13/QR1",
        "caudal": "0.6660"
    },
    {
        "timestamp": "2020-07-27 18:05:00",
        "cod_variable": "CR2-13/QR1",
        "caudal": "0.6660"
    },
    {
        "timestamp": "2020-07-27 17:55:00",
        "cod_variable": "CR2-13/QR1",
        "caudal": "0.6660"
    },
    {
        "timestamp": "2020-07-27 17:50:00",
        "cod_variable": "CR2-13/QR1",
        "caudal": "0.6660"
    },
    {
        "timestamp": "2020-07-27 17:45:00",
        "cod_variable": "CR2-13/QR1",
        "caudal": "0.6660"
    },
    {
        "timestamp": "2020-07-27 17:40:00",
        "cod_variable": "CR2-13/QR1",
        "caudal": "0.6660"
    },
    {
        "timestamp": "2020-07-27 17:35:00",
        "cod_variable": "CR2-13/QR1",
        "caudal": "0.6660"
    },
    {
        "timestamp": "2020-07-27 17:30:00",
        "cod_variable": "CR2-13/QR1",
        "caudal": "0.6660"
    },
    {
        "timestamp": "2020-07-27 17:25:00",
        "cod_variable": "CR2-13/QR1",
        "caudal": "0.6660"
    },
    {
        "timestamp": "2020-07-27 17:20:00",
        "cod_variable": "CR2-13/QR1",
        "caudal": "0.7490"
    },
    {
        "timestamp": "2020-07-27 17:15:00",
        "cod_variable": "CR2-13/QR1",
        "caudal": "0.7490"
    },
    {
        "timestamp": "2020-07-27 17:10:00",
        "cod_variable": "CR2-13/QR1",
        "caudal": "0.7490"
    },
    {
        "timestamp": "2020-07-27 17:00:00",
        "cod_variable": "CR2-13/QR1",
        "caudal": "0.7490"
    },
    {
        "timestamp": "2020-07-27 16:55:00",
        "cod_variable": "CR2-13/QR1",
        "caudal": "0.7490"
    },
    {
        "timestamp": "2020-07-27 16:50:00",
        "cod_variable": "CR2-13/QR1",
        "caudal": "0.7490"
    },
    {
        "timestamp": "2020-07-27 16:45:00",
        "cod_variable": "CR2-13/QR1",
        "caudal": "0.7490"
    },
    {
        "timestamp": "2020-07-27 16:40:00",
        "cod_variable": "CR2-13/QR1",
        "caudal": "0.7490"
    },
    {
        "timestamp": "2020-07-27 16:35:00",
        "cod_variable": "CR2-13/QR1",
        "caudal": "0.8330"
    },
    {
        "timestamp": "2020-07-27 16:30:00",
        "cod_variable": "CR2-13/QR1",
        "caudal": "0.8330"
    },
    {
        "timestamp": "2020-07-27 16:25:00",
        "cod_variable": "CR2-13/QR1",
        "caudal": "0.8330"
    },
    {
        "timestamp": "2020-07-27 16:20:00",
        "cod_variable": "CR2-13/QR1",
        "caudal": "0.8330"
    },
    {
        "timestamp": "2020-07-27 16:15:00",
        "cod_variable": "CR2-13/QR1",
        "caudal": "0.8330"
    },
    {
        "timestamp": "2020-07-27 16:05:00",
        "cod_variable": "CR2-13/QR1",
        "caudal": "0.8330"
    },
    {
        "timestamp": "2020-07-28 15:00:00",
        "cod_variable": "CR2-25/QR1",
        "caudal": "16.9020"
    },
    {
        "timestamp": "2020-07-28 14:45:00",
        "cod_variable": "CR2-25/QR1",
        "caudal": "16.9020"
    },
    {
        "timestamp": "2020-07-28 14:30:00",
        "cod_variable": "CR2-25/QR1",
        "caudal": "16.9020"
    },
    {
        "timestamp": "2020-07-28 14:15:00",
        "cod_variable": "CR2-25/QR1",
        "caudal": "16.9020"
    },
    {
        "timestamp": "2020-07-28 14:00:00",
        "cod_variable": "CR2-25/QR1",
        "caudal": "16.9020"
    },
    {
        "timestamp": "2020-07-28 13:45:00",
        "cod_variable": "CR2-25/QR1",
        "caudal": "16.9020"
    },
    {
        "timestamp": "2020-07-28 13:30:00",
        "cod_variable": "CR2-25/QR1",
        "caudal": "16.9020"
    },
    {
        "timestamp": "2020-07-28 13:15:00",
        "cod_variable": "CR2-25/QR1",
        "caudal": "16.9020"
    },
    {
        "timestamp": "2020-07-28 13:00:00",
        "cod_variable": "CR2-25/QR1",
        "caudal": "16.9020"
    },
    {
        "timestamp": "2020-07-28 12:45:00",
        "cod_variable": "CR2-25/QR1",
        "caudal": "16.9020"
    },
    {
        "timestamp": "2020-07-28 12:30:00",
        "cod_variable": "CR2-25/QR1",
        "caudal": "16.9020"
    },
    {
        "timestamp": "2020-07-28 12:15:00",
        "cod_variable": "CR2-25/QR1",
        "caudal": "16.9020"
    },
    {
        "timestamp": "2020-07-28 12:00:00",
        "cod_variable": "CR2-25/QR1",
        "caudal": "16.9020"
    },
    {
        "timestamp": "2020-07-28 11:45:00",
        "cod_variable": "CR2-25/QR1",
        "caudal": "16.9020"
    },
    {
        "timestamp": "2020-07-28 11:30:00",
        "cod_variable": "CR2-25/QR1",
        "caudal": "16.9460"
    },
    {
        "timestamp": "2020-07-28 11:15:00",
        "cod_variable": "CR2-25/QR1",
        "caudal": "17.5520"
    },
    {
        "timestamp": "2020-07-28 11:00:00",
        "cod_variable": "CR2-25/QR1",
        "caudal": "17.5520"
    },
    {
        "timestamp": "2020-07-28 10:45:00",
        "cod_variable": "CR2-25/QR1",
        "caudal": "17.5520"
    },
    {
        "timestamp": "2020-07-28 10:30:00",
        "cod_variable": "CR2-25/QR1",
        "caudal": "17.5520"
    },
    {
        "timestamp": "2020-07-28 10:15:00",
        "cod_variable": "CR2-25/QR1",
        "caudal": "17.5520"
    },
    {
        "timestamp": "2020-07-28 10:00:00",
        "cod_variable": "CR2-25/QR1",
        "caudal": "17.5520"
    },
    {
        "timestamp": "2020-07-28 09:45:00",
        "cod_variable": "CR2-25/QR1",
        "caudal": "17.5520"
    },
    {
        "timestamp": "2020-07-28 09:30:00",
        "cod_variable": "CR2-25/QR1",
        "caudal": "17.5520"
    },
    {
        "timestamp": "2020-07-28 09:15:00",
        "cod_variable": "CR2-25/QR1",
        "caudal": "17.8120"
    },
    {
        "timestamp": "2020-07-28 09:00:00",
        "cod_variable": "CR2-25/QR1",
        "caudal": "18.2000"
    },
    {
        "timestamp": "2020-07-28 08:45:00",
        "cod_variable": "CR2-25/QR1",
        "caudal": "18.2000"
    },
    {
        "timestamp": "2020-07-28 08:30:00",
        "cod_variable": "CR2-25/QR1",
        "caudal": "18.2000"
    },
    {
        "timestamp": "2020-07-28 08:15:00",
        "cod_variable": "CR2-25/QR1",
        "caudal": "18.2000"
    },
    {
        "timestamp": "2020-07-28 08:00:00",
        "cod_variable": "CR2-25/QR1",
        "caudal": "18.2000"
    },
    {
        "timestamp": "2020-07-28 07:45:00",
        "cod_variable": "CR2-25/QR1",
        "caudal": "18.2000"
    },
    {
        "timestamp": "2020-07-28 07:30:00",
        "cod_variable": "CR2-25/QR1",
        "caudal": "18.2000"
    },
    {
        "timestamp": "2020-07-28 07:15:00",
        "cod_variable": "CR2-25/QR1",
        "caudal": "18.2000"
    },
    {
        "timestamp": "2020-07-28 07:00:00",
        "cod_variable": "CR2-25/QR1",
        "caudal": "18.2000"
    },
    {
        "timestamp": "2020-07-28 06:45:00",
        "cod_variable": "CR2-25/QR1",
        "caudal": "18.7240"
    },
    {
        "timestamp": "2020-07-28 06:30:00",
        "cod_variable": "CR2-25/QR1",
        "caudal": "18.8500"
    },
    {
        "timestamp": "2020-07-28 06:15:00",
        "cod_variable": "CR2-25/QR1",
        "caudal": "18.8500"
    },
    {
        "timestamp": "2020-07-28 06:00:00",
        "cod_variable": "CR2-25/QR1",
        "caudal": "18.8500"
    },
    {
        "timestamp": "2020-07-28 05:45:00",
        "cod_variable": "CR2-25/QR1",
        "caudal": "18.8500"
    },
    {
        "timestamp": "2020-07-28 05:30:00",
        "cod_variable": "CR2-25/QR1",
        "caudal": "18.8500"
    },
    {
        "timestamp": "2020-07-28 05:15:00",
        "cod_variable": "CR2-25/QR1",
        "caudal": "18.8500"
    },
    {
        "timestamp": "2020-07-28 05:00:00",
        "cod_variable": "CR2-25/QR1",
        "caudal": "18.8500"
    },
    {
        "timestamp": "2020-07-28 04:45:00",
        "cod_variable": "CR2-25/QR1",
        "caudal": "18.8500"
    },
    {
        "timestamp": "2020-07-28 04:30:00",
        "cod_variable": "CR2-25/QR1",
        "caudal": "18.8500"
    },
    {
        "timestamp": "2020-07-28 04:15:00",
        "cod_variable": "CR2-25/QR1",
        "caudal": "18.8500"
    },
    {
        "timestamp": "2020-07-28 04:00:00",
        "cod_variable": "CR2-25/QR1",
        "caudal": "18.8500"
    },
    {
        "timestamp": "2020-07-28 03:45:00",
        "cod_variable": "CR2-25/QR1",
        "caudal": "18.8500"
    },
    {
        "timestamp": "2020-07-28 03:30:00",
        "cod_variable": "CR2-25/QR1",
        "caudal": "18.8500"
    },
    {
        "timestamp": "2020-07-28 03:15:00",
        "cod_variable": "CR2-25/QR1",
        "caudal": "18.8500"
    },
    {
        "timestamp": "2020-07-28 03:00:00",
        "cod_variable": "CR2-25/QR1",
        "caudal": "18.8500"
    },
    {
        "timestamp": "2020-07-28 02:45:00",
        "cod_variable": "CR2-25/QR1",
        "caudal": "18.8500"
    },
    {
        "timestamp": "2020-07-28 02:30:00",
        "cod_variable": "CR2-25/QR1",
        "caudal": "18.8500"
    },
    {
        "timestamp": "2020-07-28 02:15:00",
        "cod_variable": "CR2-25/QR1",
        "caudal": "18.8500"
    },
    {
        "timestamp": "2020-07-28 02:00:00",
        "cod_variable": "CR2-25/QR1",
        "caudal": "18.8500"
    },
    {
        "timestamp": "2020-07-28 01:45:00",
        "cod_variable": "CR2-25/QR1",
        "caudal": "18.8500"
    },
    {
        "timestamp": "2020-07-28 01:30:00",
        "cod_variable": "CR2-25/QR1",
        "caudal": "18.8500"
    },
    {
        "timestamp": "2020-07-28 01:15:00",
        "cod_variable": "CR2-25/QR1",
        "caudal": "18.8500"
    },
    {
        "timestamp": "2020-07-28 01:00:00",
        "cod_variable": "CR2-25/QR1",
        "caudal": "18.8500"
    },
    {
        "timestamp": "2020-07-28 00:45:00",
        "cod_variable": "CR2-25/QR1",
        "caudal": "18.8500"
    },
    {
        "timestamp": "2020-07-28 00:30:00",
        "cod_variable": "CR2-25/QR1",
        "caudal": "18.8500"
    },
    {
        "timestamp": "2020-07-28 00:15:00",
        "cod_variable": "CR2-25/QR1",
        "caudal": "18.8500"
    },
    {
        "timestamp": "2020-07-28 00:00:00",
        "cod_variable": "CR2-25/QR1",
        "caudal": "18.8500"
    },
    {
        "timestamp": "2020-07-27 23:45:00",
        "cod_variable": "CR2-25/QR1",
        "caudal": "18.8500"
    },
    {
        "timestamp": "2020-07-27 23:30:00",
        "cod_variable": "CR2-25/QR1",
        "caudal": "18.8500"
    },
    {
        "timestamp": "2020-07-27 23:15:00",
        "cod_variable": "CR2-25/QR1",
        "caudal": "18.8500"
    },
    {
        "timestamp": "2020-07-27 23:00:00",
        "cod_variable": "CR2-25/QR1",
        "caudal": "18.8500"
    },
    {
        "timestamp": "2020-07-27 22:45:00",
        "cod_variable": "CR2-25/QR1",
        "caudal": "18.8500"
    },
    {
        "timestamp": "2020-07-27 22:30:00",
        "cod_variable": "CR2-25/QR1",
        "caudal": "18.8500"
    },
    {
        "timestamp": "2020-07-27 22:15:00",
        "cod_variable": "CR2-25/QR1",
        "caudal": "18.8500"
    },
    {
        "timestamp": "2020-07-27 22:00:00",
        "cod_variable": "CR2-25/QR1",
        "caudal": "18.8500"
    },
    {
        "timestamp": "2020-07-27 21:45:00",
        "cod_variable": "CR2-25/QR1",
        "caudal": "18.8500"
    },
    {
        "timestamp": "2020-07-27 21:30:00",
        "cod_variable": "CR2-25/QR1",
        "caudal": "18.8500"
    },
    {
        "timestamp": "2020-07-27 21:15:00",
        "cod_variable": "CR2-25/QR1",
        "caudal": "18.8500"
    },
    {
        "timestamp": "2020-07-27 21:00:00",
        "cod_variable": "CR2-25/QR1",
        "caudal": "18.8490"
    },
    {
        "timestamp": "2020-07-27 20:45:00",
        "cod_variable": "CR2-25/QR1",
        "caudal": "18.2430"
    },
    {
        "timestamp": "2020-07-27 20:30:00",
        "cod_variable": "CR2-25/QR1",
        "caudal": "18.2000"
    },
    {
        "timestamp": "2020-07-27 20:15:00",
        "cod_variable": "CR2-25/QR1",
        "caudal": "18.2000"
    },
    {
        "timestamp": "2020-07-27 20:00:00",
        "cod_variable": "CR2-25/QR1",
        "caudal": "18.2000"
    },
    {
        "timestamp": "2020-07-27 19:45:00",
        "cod_variable": "CR2-25/QR1",
        "caudal": "18.2000"
    },
    {
        "timestamp": "2020-07-27 19:30:00",
        "cod_variable": "CR2-25/QR1",
        "caudal": "18.2000"
    },
    {
        "timestamp": "2020-07-27 19:15:00",
        "cod_variable": "CR2-25/QR1",
        "caudal": "18.2000"
    },
    {
        "timestamp": "2020-07-27 19:00:00",
        "cod_variable": "CR2-25/QR1",
        "caudal": "18.2000"
    },
    {
        "timestamp": "2020-07-27 18:45:00",
        "cod_variable": "CR2-25/QR1",
        "caudal": "18.4610"
    },
    {
        "timestamp": "2020-07-27 18:30:00",
        "cod_variable": "CR2-25/QR1",
        "caudal": "18.5900"
    },
    {
        "timestamp": "2020-07-27 18:15:00",
        "cod_variable": "CR2-25/QR1",
        "caudal": "18.7280"
    },
    {
        "timestamp": "2020-07-27 18:00:00",
        "cod_variable": "CR2-25/QR1",
        "caudal": "18.6920"
    },
    {
        "timestamp": "2020-07-27 17:45:00",
        "cod_variable": "CR2-25/QR1",
        "caudal": "18.7590"
    },
    {
        "timestamp": "2020-07-27 17:30:00",
        "cod_variable": "CR2-25/QR1",
        "caudal": "18.4480"
    },
    {
        "timestamp": "2020-07-27 17:15:00",
        "cod_variable": "CR2-25/QR1",
        "caudal": "18.4010"
    },
    {
        "timestamp": "2020-07-27 17:00:00",
        "cod_variable": "CR2-25/QR1",
        "caudal": "18.2000"
    },
    {
        "timestamp": "2020-07-27 16:45:00",
        "cod_variable": "CR2-25/QR1",
        "caudal": "18.2000"
    },
    {
        "timestamp": "2020-07-27 16:30:00",
        "cod_variable": "CR2-25/QR1",
        "caudal": "18.2000"
    },
    {
        "timestamp": "2020-07-27 16:15:00",
        "cod_variable": "CR2-25/QR1",
        "caudal": "18.2000"
    },
    {
        "timestamp": "2020-07-28 14:45:00",
        "cod_variable": "CR2-34/QR1",
        "caudal": "5.2010"
    },
    {
        "timestamp": "2020-07-28 14:30:00",
        "cod_variable": "CR2-34/QR1",
        "caudal": "5.2010"
    },
    {
        "timestamp": "2020-07-28 14:15:00",
        "cod_variable": "CR2-34/QR1",
        "caudal": "5.2010"
    },
    {
        "timestamp": "2020-07-28 14:00:00",
        "cod_variable": "CR2-34/QR1",
        "caudal": "5.2010"
    },
    {
        "timestamp": "2020-07-28 13:45:00",
        "cod_variable": "CR2-34/QR1",
        "caudal": "5.2010"
    },
    {
        "timestamp": "2020-07-28 13:30:00",
        "cod_variable": "CR2-34/QR1",
        "caudal": "5.2010"
    },
    {
        "timestamp": "2020-07-28 13:15:00",
        "cod_variable": "CR2-34/QR1",
        "caudal": "5.2010"
    },
    {
        "timestamp": "2020-07-28 13:00:00",
        "cod_variable": "CR2-34/QR1",
        "caudal": "5.2010"
    },
    {
        "timestamp": "2020-07-28 12:45:00",
        "cod_variable": "CR2-34/QR1",
        "caudal": "5.2010"
    },
    {
        "timestamp": "2020-07-28 12:30:00",
        "cod_variable": "CR2-34/QR1",
        "caudal": "5.2010"
    },
    {
        "timestamp": "2020-07-28 12:15:00",
        "cod_variable": "CR2-34/QR1",
        "caudal": "5.2010"
    },
    {
        "timestamp": "2020-07-28 12:00:00",
        "cod_variable": "CR2-34/QR1",
        "caudal": "5.2010"
    },
    {
        "timestamp": "2020-07-28 11:45:00",
        "cod_variable": "CR2-34/QR1",
        "caudal": "5.2000"
    },
    {
        "timestamp": "2020-07-28 11:30:00",
        "cod_variable": "CR2-34/QR1",
        "caudal": "5.0560"
    },
    {
        "timestamp": "2020-07-28 11:15:00",
        "cod_variable": "CR2-34/QR1",
        "caudal": "5.0470"
    },
    {
        "timestamp": "2020-07-28 11:00:00",
        "cod_variable": "CR2-34/QR1",
        "caudal": "5.0470"
    },
    {
        "timestamp": "2020-07-28 10:45:00",
        "cod_variable": "CR2-34/QR1",
        "caudal": "5.0470"
    },
    {
        "timestamp": "2020-07-28 10:30:00",
        "cod_variable": "CR2-34/QR1",
        "caudal": "5.0470"
    },
    {
        "timestamp": "2020-07-28 10:15:00",
        "cod_variable": "CR2-34/QR1",
        "caudal": "5.0470"
    },
    {
        "timestamp": "2020-07-28 10:00:00",
        "cod_variable": "CR2-34/QR1",
        "caudal": "5.0470"
    },
    {
        "timestamp": "2020-07-28 09:45:00",
        "cod_variable": "CR2-34/QR1",
        "caudal": "5.0470"
    },
    {
        "timestamp": "2020-07-28 09:30:00",
        "cod_variable": "CR2-34/QR1",
        "caudal": "5.0470"
    },
    {
        "timestamp": "2020-07-28 09:15:00",
        "cod_variable": "CR2-34/QR1",
        "caudal": "5.0470"
    },
    {
        "timestamp": "2020-07-28 09:00:00",
        "cod_variable": "CR2-34/QR1",
        "caudal": "5.0470"
    },
    {
        "timestamp": "2020-07-28 08:45:00",
        "cod_variable": "CR2-34/QR1",
        "caudal": "5.0470"
    },
    {
        "timestamp": "2020-07-28 08:30:00",
        "cod_variable": "CR2-34/QR1",
        "caudal": "5.0470"
    },
    {
        "timestamp": "2020-07-28 08:15:00",
        "cod_variable": "CR2-34/QR1",
        "caudal": "5.0470"
    },
    {
        "timestamp": "2020-07-28 08:00:00",
        "cod_variable": "CR2-34/QR1",
        "caudal": "5.0470"
    },
    {
        "timestamp": "2020-07-28 07:45:00",
        "cod_variable": "CR2-34/QR1",
        "caudal": "5.0470"
    },
    {
        "timestamp": "2020-07-28 07:30:00",
        "cod_variable": "CR2-34/QR1",
        "caudal": "5.0470"
    },
    {
        "timestamp": "2020-07-28 07:15:00",
        "cod_variable": "CR2-34/QR1",
        "caudal": "5.0470"
    },
    {
        "timestamp": "2020-07-28 07:00:00",
        "cod_variable": "CR2-34/QR1",
        "caudal": "5.0470"
    },
    {
        "timestamp": "2020-07-28 06:45:00",
        "cod_variable": "CR2-34/QR1",
        "caudal": "5.0470"
    },
    {
        "timestamp": "2020-07-28 06:30:00",
        "cod_variable": "CR2-34/QR1",
        "caudal": "5.0470"
    },
    {
        "timestamp": "2020-07-28 06:15:00",
        "cod_variable": "CR2-34/QR1",
        "caudal": "5.0470"
    },
    {
        "timestamp": "2020-07-28 06:00:00",
        "cod_variable": "CR2-34/QR1",
        "caudal": "5.0470"
    },
    {
        "timestamp": "2020-07-28 05:45:00",
        "cod_variable": "CR2-34/QR1",
        "caudal": "5.0470"
    },
    {
        "timestamp": "2020-07-28 05:30:00",
        "cod_variable": "CR2-34/QR1",
        "caudal": "5.0470"
    },
    {
        "timestamp": "2020-07-28 05:15:00",
        "cod_variable": "CR2-34/QR1",
        "caudal": "4.9130"
    },
    {
        "timestamp": "2020-07-28 05:00:00",
        "cod_variable": "CR2-34/QR1",
        "caudal": "4.8940"
    },
    {
        "timestamp": "2020-07-28 04:45:00",
        "cod_variable": "CR2-34/QR1",
        "caudal": "4.8940"
    },
    {
        "timestamp": "2020-07-28 04:30:00",
        "cod_variable": "CR2-34/QR1",
        "caudal": "4.8940"
    },
    {
        "timestamp": "2020-07-28 04:15:00",
        "cod_variable": "CR2-34/QR1",
        "caudal": "4.8940"
    },
    {
        "timestamp": "2020-07-28 04:00:00",
        "cod_variable": "CR2-34/QR1",
        "caudal": "4.8940"
    },
    {
        "timestamp": "2020-07-28 03:45:00",
        "cod_variable": "CR2-34/QR1",
        "caudal": "4.8940"
    },
    {
        "timestamp": "2020-07-28 03:30:00",
        "cod_variable": "CR2-34/QR1",
        "caudal": "4.8940"
    },
    {
        "timestamp": "2020-07-28 03:15:00",
        "cod_variable": "CR2-34/QR1",
        "caudal": "4.8940"
    },
    {
        "timestamp": "2020-07-28 03:00:00",
        "cod_variable": "CR2-34/QR1",
        "caudal": "4.8940"
    },
    {
        "timestamp": "2020-07-28 02:45:00",
        "cod_variable": "CR2-34/QR1",
        "caudal": "4.8940"
    },
    {
        "timestamp": "2020-07-28 02:30:00",
        "cod_variable": "CR2-34/QR1",
        "caudal": "4.8940"
    },
    {
        "timestamp": "2020-07-28 02:15:00",
        "cod_variable": "CR2-34/QR1",
        "caudal": "4.8940"
    },
    {
        "timestamp": "2020-07-28 02:00:00",
        "cod_variable": "CR2-34/QR1",
        "caudal": "4.8940"
    },
    {
        "timestamp": "2020-07-28 01:45:00",
        "cod_variable": "CR2-34/QR1",
        "caudal": "4.8320"
    },
    {
        "timestamp": "2020-07-28 01:30:00",
        "cod_variable": "CR2-34/QR1",
        "caudal": "4.7410"
    },
    {
        "timestamp": "2020-07-28 01:15:00",
        "cod_variable": "CR2-34/QR1",
        "caudal": "4.7410"
    },
    {
        "timestamp": "2020-07-28 01:00:00",
        "cod_variable": "CR2-34/QR1",
        "caudal": "4.7410"
    },
    {
        "timestamp": "2020-07-28 00:45:00",
        "cod_variable": "CR2-34/QR1",
        "caudal": "4.7410"
    },
    {
        "timestamp": "2020-07-28 00:30:00",
        "cod_variable": "CR2-34/QR1",
        "caudal": "4.7410"
    },
    {
        "timestamp": "2020-07-28 00:15:00",
        "cod_variable": "CR2-34/QR1",
        "caudal": "4.7410"
    },
    {
        "timestamp": "2020-07-28 00:00:00",
        "cod_variable": "CR2-34/QR1",
        "caudal": "4.7410"
    },
    {
        "timestamp": "2020-07-27 23:45:00",
        "cod_variable": "CR2-34/QR1",
        "caudal": "4.7410"
    },
    {
        "timestamp": "2020-07-27 23:30:00",
        "cod_variable": "CR2-34/QR1",
        "caudal": "4.6390"
    },
    {
        "timestamp": "2020-07-27 23:15:00",
        "cod_variable": "CR2-34/QR1",
        "caudal": "4.5880"
    },
    {
        "timestamp": "2020-07-27 23:00:00",
        "cod_variable": "CR2-34/QR1",
        "caudal": "4.5880"
    },
    {
        "timestamp": "2020-07-27 22:45:00",
        "cod_variable": "CR2-34/QR1",
        "caudal": "4.5880"
    },
    {
        "timestamp": "2020-07-27 22:30:00",
        "cod_variable": "CR2-34/QR1",
        "caudal": "4.5880"
    },
    {
        "timestamp": "2020-07-27 22:15:00",
        "cod_variable": "CR2-34/QR1",
        "caudal": "4.5880"
    },
    {
        "timestamp": "2020-07-27 22:00:00",
        "cod_variable": "CR2-34/QR1",
        "caudal": "4.5570"
    },
    {
        "timestamp": "2020-07-27 21:45:00",
        "cod_variable": "CR2-34/QR1",
        "caudal": "4.4350"
    },
    {
        "timestamp": "2020-07-27 21:30:00",
        "cod_variable": "CR2-34/QR1",
        "caudal": "4.4350"
    },
    {
        "timestamp": "2020-07-27 21:15:00",
        "cod_variable": "CR2-34/QR1",
        "caudal": "4.4350"
    },
    {
        "timestamp": "2020-07-27 21:00:00",
        "cod_variable": "CR2-34/QR1",
        "caudal": "4.4350"
    },
    {
        "timestamp": "2020-07-27 20:45:00",
        "cod_variable": "CR2-34/QR1",
        "caudal": "4.4350"
    },
    {
        "timestamp": "2020-07-27 20:30:00",
        "cod_variable": "CR2-34/QR1",
        "caudal": "4.3890"
    },
    {
        "timestamp": "2020-07-27 20:15:00",
        "cod_variable": "CR2-34/QR1",
        "caudal": "4.2970"
    },
    {
        "timestamp": "2020-07-27 20:00:00",
        "cod_variable": "CR2-34/QR1",
        "caudal": "4.2970"
    },
    {
        "timestamp": "2020-07-27 19:45:00",
        "cod_variable": "CR2-34/QR1",
        "caudal": "4.2970"
    },
    {
        "timestamp": "2020-07-27 19:30:00",
        "cod_variable": "CR2-34/QR1",
        "caudal": "4.2780"
    },
    {
        "timestamp": "2020-07-27 19:15:00",
        "cod_variable": "CR2-34/QR1",
        "caudal": "4.1590"
    },
    {
        "timestamp": "2020-07-27 19:00:00",
        "cod_variable": "CR2-34/QR1",
        "caudal": "4.1590"
    },
    {
        "timestamp": "2020-07-27 18:45:00",
        "cod_variable": "CR2-34/QR1",
        "caudal": "4.1590"
    },
    {
        "timestamp": "2020-07-27 18:30:00",
        "cod_variable": "CR2-34/QR1",
        "caudal": "4.1590"
    },
    {
        "timestamp": "2020-07-27 18:15:00",
        "cod_variable": "CR2-34/QR1",
        "caudal": "4.1590"
    },
    {
        "timestamp": "2020-07-27 18:00:00",
        "cod_variable": "CR2-34/QR1",
        "caudal": "4.1590"
    },
    {
        "timestamp": "2020-07-27 17:45:00",
        "cod_variable": "CR2-34/QR1",
        "caudal": "4.2150"
    },
    {
        "timestamp": "2020-07-27 17:30:00",
        "cod_variable": "CR2-34/QR1",
        "caudal": "4.2970"
    },
    {
        "timestamp": "2020-07-27 17:15:00",
        "cod_variable": "CR2-34/QR1",
        "caudal": "4.2970"
    },
    {
        "timestamp": "2020-07-27 17:00:00",
        "cod_variable": "CR2-34/QR1",
        "caudal": "4.2970"
    },
    {
        "timestamp": "2020-07-27 16:45:00",
        "cod_variable": "CR2-34/QR1",
        "caudal": "4.3630"
    },
    {
        "timestamp": "2020-07-27 16:30:00",
        "cod_variable": "CR2-34/QR1",
        "caudal": "4.4350"
    },
    {
        "timestamp": "2020-07-27 16:15:00",
        "cod_variable": "CR2-34/QR1",
        "caudal": "4.4350"
    }
]